<svg width="102" height="102" viewBox="0 0 102 102" fill="none" xmlns="http://www.w3.org/2000/svg">
<g id="Frame 37666">
<circle id="Ellipse 16" cx="51" cy="51" r="51" fill="#E09500"/>
<g id="Mask group">
<mask id="mask0_728_2508" style="mask-type:alpha" maskUnits="userSpaceOnUse" x="0" y="0" width="102" height="102">
<circle id="Ellipse 18" cx="51" cy="51" r="51" fill="#E29C0F"/>
</mask>
<g mask="url(#mask0_728_2508)">
<circle id="Ellipse 17" cx="64.5" cy="44.5" r="47.5" fill="#FEA900"/>
</g>
</g>
</g>
</svg>
