<svg width="64" height="64" viewBox="0 0 64 64" fill="none" xmlns="http://www.w3.org/2000/svg">
<path d="M32.7998 32.5866C34.2227 31.3549 35.364 29.8316 36.1462 28.12C36.9284 26.4083 37.3332 24.5485 37.3332 22.6666C37.3332 19.1304 35.9284 15.739 33.4279 13.2385C30.9274 10.738 27.5361 9.33325 23.9998 9.33325C20.4636 9.33325 17.0722 10.738 14.5717 13.2385C12.0713 15.739 10.6665 19.1304 10.6665 22.6666C10.6665 24.5485 11.0713 26.4083 11.8535 28.12C12.6357 29.8316 13.777 31.3549 15.1998 32.5866C11.4669 34.2769 8.29975 37.0067 6.07712 40.4494C3.85449 43.8921 2.67043 47.9021 2.6665 51.9999C2.6665 52.7072 2.94746 53.3854 3.44755 53.8855C3.94765 54.3856 4.62593 54.6666 5.33317 54.6666C6.04041 54.6666 6.71869 54.3856 7.21879 53.8855C7.71889 53.3854 7.99984 52.7072 7.99984 51.9999C7.99984 47.7565 9.68555 43.6868 12.6861 40.6862C15.6867 37.6856 19.7564 35.9999 23.9998 35.9999C28.2433 35.9999 32.313 37.6856 35.3135 40.6862C38.3141 43.6868 39.9998 47.7565 39.9998 51.9999C39.9998 52.7072 40.2808 53.3854 40.7809 53.8855C41.281 54.3856 41.9593 54.6666 42.6665 54.6666C43.3737 54.6666 44.052 54.3856 44.5521 53.8855C45.0522 53.3854 45.3332 52.7072 45.3332 51.9999C45.3292 47.9021 44.1452 43.8921 41.9226 40.4494C39.6999 37.0067 36.5328 34.2769 32.7998 32.5866ZM23.9998 30.6666C22.4176 30.6666 20.8709 30.1974 19.5553 29.3183C18.2397 28.4393 17.2143 27.1899 16.6088 25.7281C16.0033 24.2662 15.8449 22.6577 16.1536 21.1059C16.4622 19.554 17.2242 18.1286 18.343 17.0097C19.4618 15.8909 20.8873 15.129 22.4391 14.8203C23.991 14.5116 25.5995 14.67 27.0613 15.2755C28.5231 15.8811 29.7725 16.9064 30.6516 18.222C31.5306 19.5376 31.9998 21.0843 31.9998 22.6666C31.9998 24.7883 31.157 26.8231 29.6567 28.3234C28.1564 29.8237 26.1216 30.6666 23.9998 30.6666ZM49.9732 31.5199C51.6798 29.5981 52.7945 27.2241 53.1833 24.6835C53.5721 22.1429 53.2183 19.5441 52.1645 17.1999C51.1108 14.8557 49.402 12.866 47.2438 11.4704C45.0856 10.0747 42.57 9.33257 39.9998 9.33325C39.2926 9.33325 38.6143 9.6142 38.1142 10.1143C37.6141 10.6144 37.3332 11.2927 37.3332 11.9999C37.3332 12.7072 37.6141 13.3854 38.1142 13.8855C38.6143 14.3856 39.2926 14.6666 39.9998 14.6666C42.1216 14.6666 44.1564 15.5094 45.6567 17.0097C47.157 18.51 47.9998 20.5449 47.9998 22.6666C47.9961 24.0672 47.6246 25.4423 46.9227 26.6544C46.2207 27.8664 45.2128 28.8729 43.9998 29.5733C43.6045 29.8013 43.2743 30.127 43.0408 30.5192C42.8074 30.9114 42.6785 31.357 42.6665 31.8133C42.6553 32.266 42.7597 32.714 42.9696 33.1153C43.1796 33.5165 43.4882 33.8577 43.8665 34.1066L44.9065 34.7999L45.2532 34.9866C48.4676 36.5112 51.1793 38.9226 53.0691 41.9368C54.9589 44.951 55.948 48.4424 55.9198 51.9999C55.9198 52.7072 56.2008 53.3854 56.7009 53.8855C57.201 54.3856 57.8793 54.6666 58.5865 54.6666C59.2937 54.6666 59.972 54.3856 60.4721 53.8855C60.9722 53.3854 61.2532 52.7072 61.2532 51.9999C61.275 47.9077 60.25 43.8779 58.2758 40.2934C56.3015 36.7089 53.4434 33.6888 49.9732 31.5199Z" fill="#DF1E36"/>
</svg>
